Chapter 2 Linear regression: Predicting course evaluation scores | Data Science Portfolio
…
  ) %>% 

  # Move a potential indentifer variable to the front of the dataframe 
  # and rename for consistency
  rename(prof_number = profnumber)  %>% 
  relocate(prof_number, .before = course_evaluation)

teaching_eval_focus  

## # A tibble: 463 x 46
##    prof_number course_evaluation tenured minority   age prof_ave_rating
##          <dbl>             <dbl>   <dbl>    <dbl> <dbl>           <dbl>
##  1           1               4.3       0        1    36             4.7
##  2           2               4.5       1        0    59             4.6
##  3           3               3.7       1        0    51             4.1
##  4           4               4.3       1        0    40             4.5
##  5           5               4.4       0        0    31             4.8
##  6           6               4.2       1        0    62             4.4
##  7           7               4         0        0    33             4.4
##  8           8               3.4       1        0    51             3.4
##  9           9               4.5       0        0    33             4.8
## 10          10               3.9       0        0    47             4  
## # ... with 453 more rows, and 40 more variables: prof_ave_beauty_rating <dbl>,
## #   female <dbl>, formal <dbl>, non_native_english <dbl>, tenure_track <dbl>,
## #   lower <dbl>, multiple_prof <dbl>, one_credit <dbl>,
## #   eval_response_rate <dbl>, students <dbl>, class1 <dbl>, class2 <dbl>,
## #   class3 <dbl>, class4 <dbl>, class5 <dbl>, class6 <dbl>, class7 <dbl>,
## #   class8 <dbl>, class9 <dbl>, class10 <dbl>, class11 <dbl>, class12 <dbl>,
## #   class13 <dbl>, class14 <dbl>, class15 <dbl>, class16 <dbl>, class17 <dbl>,
## #   class18 <dbl>, class19 <dbl>, class20 <dbl>, class21 <dbl>, class22 <dbl>,
## #   class23 <dbl>, class24 <dbl>, class25 <dbl>, class26 <dbl>, class27 <dbl>,
…
