Chapter 2 Predicting the amount of plastic waste a country produces each year | Data Science Portfolio
…
2.2 Data cleaning

2.2.1 Missing data

I started the analysis with the idea that there could be relationship between the amount of plastic waste produced by a country and the size of its economy. So, I focused on just one of the three #TidyTuesday datasets waste_vs_gdp.

# show data for initial inspection
waste_vs_gdp

## # A tibble: 22,204 x 6
##    country     country_code  year plastic_waste_per_cap gdp_per_cap population
##    <chr>       <chr>        <dbl>                 <dbl>       <dbl>      <dbl>
##  1 Afghanistan AFG           1800                    NA          NA    3280000
##  2 Afghanistan AFG           1820                    NA          NA    3280000
##  3 Afghanistan AFG           1870                    NA          NA    4207000
##  4 Afghanistan AFG           1913                    NA          NA    5730000
##  5 Afghanistan AFG           1950                    NA          NA    8151455
##  6 Afghanistan AFG           1951                    NA          NA    8276820
##  7 Afghanistan AFG           1952                    NA          NA    8407148
##  8 Afghanistan AFG           1953                    NA          NA    8542906
##  9 Afghanistan AFG           1954                    NA          NA    8684494
## 10 Afghanistan AFG           1955                    NA          NA    8832253
## # ... with 22,194 more rows
…
# check which countries/entities have no GDP data
waste_vs_gdp_cleaned %>% 
  filter(is.na(gdp_per_cap)) %>% 
  distinct(country, country_code)

## # A tibble: 38 x 2
##    country                country_code
##    <chr>                  <chr>       
##  1 Anguilla               AIA         
##  2 Aruba                  ABW         
##  3 British Virgin Islands VGB         
##  4 Cayman Islands         CYM         
##  5 Channel Islands        OWID_CIS    
##  6 Christmas Island       CXR         
##  7 Cocos Islands          CCK         
##  8 Cook Islands           COK         
##  9 Cuba                   CUB         
## 10 Curacao                CUW         
## # ... with 28 more rows
…
# remove observations without population information  
waste_vs_gdp_cleaned <- waste_vs_gdp_cleaned %>% 
  filter(!is.na(population))

2.2.2 Inspecting the data for the country variable

Given the raw data used the variable name (geographic) entity rather than country I wanted to check that the cleaned data only contains countries. Given there are only 145 observations remaining in the dataset, I did this check manually. There were no obvious non-country entities (e.g. continents such as Europe or Asia, or high/middle/low income country groups) remaining.

# confirm there are no non-country entities within the dataset
waste_vs_gdp_cleaned %>% 
  select(country, country_code)

## # A tibble: 145 x 2
##    country             country_code
##    <chr>               <chr>       
##  1 Albania             ALB         
##  2 Algeria             DZA         
##  3 Angola              AGO         
##  4 Antigua and Barbuda ATG         
##  5 Argentina           ARG         
##  6 Australia           AUS         
##  7 Bahamas             BHS         
##  8 Bahrain             BHR         
##  9 Bangladesh          BGD         
## 10 Barbados            BRB         
## # ... with 135 more rows
…
