Chapter 4 Predicting course evaluation scores | Data Science Portfolio
…
  ) %>% 

  # Move a potential indentifer variable to the front of the dataframe 
  # and rename for consistency
  rename(prof_number = profnumber)  %>% 
  relocate(prof_number, .before = course_evaluation)

teaching_eval_focus  

## # A tibble: 463 x 46
##    prof_number course_evaluation tenured minority   age prof_ave_rating
##          <dbl>             <dbl>   <dbl>    <dbl> <dbl>           <dbl>
##  1           1               4.3       0        1    36             4.7
##  2           2               4.5       1        0    59             4.6
##  3           3               3.7       1        0    51             4.1
##  4           4               4.3       1        0    40             4.5
##  5           5               4.4       0        0    31             4.8
##  6           6               4.2       1        0    62             4.4
##  7           7               4         0        0    33             4.4
##  8           8               3.4       1        0    51             3.4
##  9           9               4.5       0        0    33             4.8
## 10          10               3.9       0        0    47             4  
## # ... with 453 more rows, and 40 more variables: prof_ave_beauty_rating <dbl>,
## #   female <dbl>, formal <dbl>, non_native_english <dbl>, tenure_track <dbl>,
## #   lower <dbl>, multiple_prof <dbl>, one_credit <dbl>,
## #   eval_response_rate <dbl>, students <dbl>, class1 <dbl>, class2 <dbl>,
## #   class3 <dbl>, class4 <dbl>, class5 <dbl>, class6 <dbl>, class7 <dbl>,
## #   class8 <dbl>, class9 <dbl>, class10 <dbl>, class11 <dbl>, class12 <dbl>,
## #   class13 <dbl>, class14 <dbl>, class15 <dbl>, class16 <dbl>, class17 <dbl>,
## #   class18 <dbl>, class19 <dbl>, class20 <dbl>, class21 <dbl>, class22 <dbl>,
## #   class23 <dbl>, class24 <dbl>, class25 <dbl>, class26 <dbl>, class27 <dbl>,
…
4.3.1 Splitting the data

# bring together all variables into a single data frame
all_variables <- select(teaching_eval_clean, course_evaluation) %>% 
  bind_cols(explanatory_variables_prof_cont,
            select(explanatory_variables_prof_discrete, 
                   -prof_number, - age_binned),
            explanatory_variables_course_cont,
            explanatory_variables_course_discrete) %>% 
  clean_names() 

all_variables

## # A tibble: 463 x 17
##    course_evaluation prof_number   age prof_ave_rating prof_ave_beauty_rating
##                <dbl>       <dbl> <dbl>           <dbl>                  <dbl>
##  1               4.3           1    36             4.7                 0.202 
##  2               4.5           2    59             4.6                -0.826 
##  3               3.7           3    51             4.1                -0.660 
##  4               4.3           4    40             4.5                -0.766 
##  5               4.4           5    31             4.8                 1.42  
##  6               4.2           6    62             4.4                 0.500 
##  7               4             7    33             4.4                -0.214 
##  8               3.4           8    51             3.4                -0.347 
##  9               4.5           9    33             4.8                 0.0613
## 10               3.9          10    47             4                   0.453 
## # ... with 453 more rows, and 12 more variables: ave_teaching_qual <dbl>,
## #   age_binned <fct>, tenured <dbl>, minority <dbl>, female <dbl>,
## #   formal <dbl>, non_native_english <dbl>, tenure_track <dbl>,
## #   eval_response_rate <dbl>, students <dbl>, lower <dbl>, multiple_prof <dbl>
…
